{
  "Version": "2.1.2",
  "Hashes": [
    {
      "Path": "Menu",
      "Hash": 4023604136
    },
    {
      "Path": "Version",
      "Hash": 53749581
    },
    {
      "Path": "Sprite\\Interlude\\STAGE_CUSTOM_RETAIL_FOREGROUND.png",
      "Hash": 2244522327
    },
    {
      "Path": "Sprite\\Interlude\\STAGE_CUSTOM_TITLE.png",
      "Hash": 2127057324
    },
    {
      "Path": "Sprite\\Splash\\SPLASH_ARROWS.png",
      "Hash": 3163302291
    },
    {
      "Path": "Sprite\\Text\\B_BUTTON.png",
      "Hash": 3571235049
    },
    {
      "Path": "Sprite\\Text\\CIRCLE_BUTTON.png",
      "Hash": 4029030147
    },
    {
      "Path": "Sprite\\Text\\FONT_PICTURE.png",
      "Hash": 839264680
    }
  ]
}